Cross-Validation: Advanced
…
--

.scroll40[

```r
library(tidymodels)
titanic <- read.csv("https://rb.gy/hm7p84")

set.seed(2022)

titanic_folds <- vfold_cv(titanic, v = 10, repeats = 3, strata = fare)
titanic_folds
#> #  10-fold cross-validation repeated 3 times using stratification 
#> # A tibble: 30 × 3
#>    splits             id      id2   
#>    <list>             <chr>   <chr> 
#>  1 <split [1177/132]> Repeat1 Fold01
#>  2 <split [1177/132]> Repeat1 Fold02
#>  3 <split [1177/132]> Repeat1 Fold03
#>  4 <split [1177/132]> Repeat1 Fold04
#>  5 <split [1178/131]> Repeat1 Fold05
#>  6 <split [1178/131]> Repeat1 Fold06
#>  7 <split [1178/131]> Repeat1 Fold07
#>  8 <split [1179/130]> Repeat1 Fold08
#>  9 <split [1180/129]> Repeat1 Fold09
#> 10 <split [1180/129]> Repeat1 Fold10
#> # … with 20 more rows
```
…
