Cross-Validation: Advanced
…
Let's perform 10-fold cross-validation repeated 3 times using the `affect` dataset.

--

.scroll40[

```r
library(tidymodels)
affect <- read_csv("../data/affect.csv")

affect_folds <- vfold_cv(affect, v = 10, repeats = 3)
affect_folds
#> #  10-fold cross-validation repeated 3 times 
#> # A tibble: 30 × 3
#>    splits           id      id2   
#>    <list>           <chr>   <chr> 
#>  1 <split [297/33]> Repeat1 Fold01
#>  2 <split [297/33]> Repeat1 Fold02
#>  3 <split [297/33]> Repeat1 Fold03
#>  4 <split [297/33]> Repeat1 Fold04
#>  5 <split [297/33]> Repeat1 Fold05
#>  6 <split [297/33]> Repeat1 Fold06
#>  7 <split [297/33]> Repeat1 Fold07
#>  8 <split [297/33]> Repeat1 Fold08
#>  9 <split [297/33]> Repeat1 Fold09
#> 10 <split [297/33]> Repeat1 Fold10
#> # … with 20 more rows
```
…
`[297/33]` indicates N = 297 in the analysis set and N = 33 in that particular k-fold.  

---
class: onecol
## k-fold Cross-Validation in R

We can extract individual resampled data folds with `analysis()` and `assessment()`.

--

.scroll40[

```r
affect_folds$splits[[1]] %>% analysis()
#> # A tibble: 297 × 8
#>    Film          ext  neur   imp   soc posaff negaff    BDI
#>    <chr>       <dbl> <dbl> <dbl> <dbl>  <dbl>  <dbl>  <dbl>
#>  1 Nature         18     9     7    10      7      4 0.0476
#>  2 Nature         16    12     5     8      5      5 0.333 
#>  3 Nature          6     5     3     1      3      1 0.190 
#>  4 Nature         12    15     4     6      0      2 0.385 
#>  5 Nature         14     2     5     6     16     13 0.381 
#>  6 Documentary     6    15     2     4      2      2 0.238 
#>  7 Documentary    15    12     4     9      8      8 0.308 
#>  8 Horror         15     1     3    11     14      0 0     
#>  9 Horror          8    10     2     5     11      2 0.333 
#> 10 Comedy         14     1     3    12     29      0 0.143 
#> # … with 287 more rows

affect_folds$splits[[1]] %>% assessment()
#> # A tibble: 33 × 8
#>    Film          ext  neur   imp   soc posaff negaff    BDI
#>    <chr>       <dbl> <dbl> <dbl> <dbl>  <dbl>  <dbl>  <dbl>
#>  1 Horror         18    10     7     9     16      0 0     
#>  2 Documentary    13     9     3     9      3      7 0.381 
#>  3 Documentary    16    18     5    10      4     18 0.667 
#>  4 Horror         14     3     5     7      7      2 0.0476
#>  5 Nature         13     7     4     7      5      0 0.429 
#>  6 Horror         14    14     3    10     10     14 0.190 
#>  7 Horror         11     8     3     7     11      1 0     
#>  8 Nature         12    10     4     7     10      5 0.286 
#>  9 Nature         12     7     2     9     23      0 0.190 
#> 10 Nature         18     6     7     8     20      0 0.143 
#> # … with 23 more rows
```
…
