Fitting Models
…
.footnote[
[1] The same process is used for both evaluating performance and deploying the model in the real world.
]

---
class: onecol
# Test Set Predictions

```r
fare_pred <- predict(fare_fit, new_data = fare_test)
fare_pred
#> # A tibble: 194 × 1
#>    .pred
#>    <dbl>
#>  1  38.3
#>  2  67.5
#>  3  21.4
#>  4  32.2
#>  5  37.7
#>  6  27.7
#>  7  40.4
#>  8  37.7
#>  9  36.8
#> 10  43.1
#> # … with 184 more rows
```
…
`predict()` returns predictions in the **same order** as the original data.

This makes it easy to merge predictions with test data to estimate model performance.

--

.scroll50[

```r
fare_pred <- fare_test %>% 
  select(fare) %>% 
  bind_cols(predict(fare_fit, new_data = fare_test))

fare_pred
#> # A tibble: 194 × 2
#>     fare .pred
#>    <dbl> <dbl>
#>  1 152.   38.3
#>  2  78.0  67.5
#>  3  69.3  21.4
#>  4  75.2  32.2
#>  5 228.   37.7
#>  6  91.1  27.7
#>  7  35.5  40.4
#>  8  26.6  37.7
#>  9  30.5  36.8
#> 10  50.5  43.1
#> # … with 184 more rows
```
…
